%!PS-Adobe-2.0 EPSF-2.0
%%BoundingBox:  0 0 567 384
%%Title: extrapolation.eps: c1
%%Creator: ROOT Version 5.34/03
%%CreationDate: Tue Jul 25 12:34:28 2017
%%EndComments
%%BeginProlog
80 dict begin
/s {stroke} def /l {lineto} def /m {moveto} def /t {translate} def
/r {rotate} def /rl {roll}  def /R {repeat} def
/d {rlineto} def /rm {rmoveto} def /gr {grestore} def /f {eofill} def
/c {setrgbcolor} def /black {0 setgray} def /sd {setdash} def
/cl {closepath} def /sf {scalefont setfont} def /lw {setlinewidth} def
/box {m dup 0 exch d exch 0 d 0 exch neg d cl} def
/NC{systemdict begin initclip end}def/C{NC box clip newpath}def
/bl {box s} def /bf {box f} def /Y { 0 exch d} def /X { 0 d} def 
/K {{pop pop 0 moveto} exch kshow} bind def
/ita {/ang 15 def gsave [1 0 ang dup sin exch cos div 1 0 0] concat} def 
/mp {newpath /y exch def /x exch def} def
/side {[w .77 mul w .23 mul] .385 w mul sd w 0 l currentpoint t -144 r} def
/mr {mp x y w2 0 360 arc} def /m24 {mr s} def /m20 {mr f} def
/mb {mp x y w2 add m w2 neg 0 d 0 w neg d w 0 d 0 w d cl} def
/mt {mp x y w2 add m w2 neg w neg d w 0 d cl} def
/m21 {mb f} def /m25 {mb s} def /m22 {mt f} def /m26{mt s} def
/m23 {mp x y w2 sub m w2 w d w neg 0 d cl f} def
/m27 {mp x y w2 add m w3 neg w2 neg d w3 w2 neg d w3 w2 d cl s} def
/m28 {mp x w2 sub y w2 sub w3 add m w3 0 d  0 w3 neg d w3 0 d 0 w3 d w3 0 d  0 w3 d w3 neg 0 d 0 w3 d w3 neg 0 d 0 w3 neg d w3 neg 0 d cl s } def
/m29 {mp gsave x w2 sub y w2 add w3 sub m currentpoint t 4 {side} repeat cl fill gr} def
/m30 {mp gsave x w2 sub y w2 add w3 sub m currentpoint t 4 {side} repeat cl s gr} def
/m31 {mp x y w2 sub m 0 w d x w2 sub y m w 0 d x w2 sub y w2 add m w w neg d x w2 sub y w2 sub m w w d s} def
/m32 {mp x y w2 sub m w2 w d w neg 0 d cl s} def
/m33 {mp x y w2 add m w3 neg w2 neg d w3 w2 neg d w3 w2 d cl f} def
/m34 {mp x w2 sub y w2 sub w3 add m w3 0 d  0 w3 neg d w3 0 d 0 w3 d w3 0 d  0 w3 d w3 neg 0 d 0 w3 d w3 neg 0 d 0 w3 neg d w3 neg 0 d cl f } def
/m2 {mp x y w2 sub m 0 w d x w2 sub y m w 0 d s} def
/m5 {mp x w2 sub y w2 sub m w w d x w2 sub y w2 add m w w neg d s} def
/reEncode {exch findfont dup length dict begin {1 index /FID eq  {pop pop} {def} ifelse } forall /Encoding exch def currentdict end dup /FontName get exch definefont pop } def [/Times-Bold /Times-Italic /Times-BoldItalic /Helvetica /Helvetica-Oblique
 /Helvetica-Bold /Helvetica-BoldOblique /Courier /Courier-Oblique /Courier-Bold /Courier-BoldOblique /Times-Roman /AvantGarde-Book /AvantGarde-BookOblique /AvantGarde-Demi /AvantGarde-DemiOblique /Bookman-Demi /Bookman-DemiItalic /Bookman-Light
 /Bookman-LightItalic /Helvetica-Narrow /Helvetica-Narrow-Bold /Helvetica-Narrow-BoldOblique /Helvetica-Narrow-Oblique /NewCenturySchlbk-Roman /NewCenturySchlbk-Bold /NewCenturySchlbk-BoldItalic /NewCenturySchlbk-Italic /Palatino-Bold
 /Palatino-BoldItalic /Palatino-Italic /Palatino-Roman ] {ISOLatin1Encoding reEncode } forall
%%EndProlog
%%BeginSetup
%%EndSetup
newpath  gsave  .25 .25 scale  gsave  0 0 t black[  ] 0 sd 3 lw 1 1 1 c 2268 1538 0 0 bf black 1 1 1 c 1791 1215 363 246 bf black 1791 1215 363 246 bl 1 0 0 c 6 lw 1 1 1 c black 1 0 0 c 363 726 m 60 X 41 Y 59 X 51 Y 60 X 103 Y 60 X 140 Y 59 X 145 Y
 60 X 169 Y 60 X 31 Y 60 X -367 Y 59 X -375 Y 60 X -224 Y 119 X -102 Y 120 X -41 Y 119 X -23 Y 179 X -14 Y 180 X -4 Y 179 X -5 Y 298 X s black 3 lw 363 246 m 1791 X s
 gsave  2268 1538 0 0 C 1954.93 55.3896 t 0 r /Helvetica findfont 71.6807 sf 0 0 m ( [GeV]) show NC gr 
 gsave  2268 1538 0 0 C 1909.31 78.1971 t 0 r /Helvetica findfont 48.8732 sf 0 0 m (W) show NC gr 
 gsave  2268 1538 0 0 C 1909.31 32.5821 t 0 r /Helvetica findfont 48.8732 sf 0 0 m (T) show NC gr 
 gsave  2268 1538 0 0 C 1853.92 55.3896 t 0 r /Helvetica findfont 71.6807 sf 0 0 m (m) show NC gr  363 283 m -37 Y s 423 264 m -18 Y s 482 264 m -18 Y s 542 264 m -18 Y s 602 264 m -18 Y s 661 283 m -37 Y s 721 264 m -18 Y s 781 264 m -18 Y s 841 264
 m -18 Y s 900 264 m -18 Y s 960 283 m -37 Y s 1020 264 m -18 Y s 1079 264 m -18 Y s 1139 264 m -18 Y s 1199 264 m -18 Y s 1259 283 m -37 Y s 1318 264 m -18 Y s 1378 264 m -18 Y s 1438 264 m -18 Y s 1497 264 m -18 Y s 1557 283 m -37 Y s 1617 264 m
 -18 Y s 1677 264 m -18 Y s 1736 264 m -18 Y s 1796 264 m -18 Y s 1856 283 m -37 Y s 1915 264 m -18 Y s 1975 264 m -18 Y s 2035 264 m -18 Y s 2095 264 m -18 Y s 2154 283 m -37 Y s
 gsave  2268 1538 0 0 C 342.112 179.202 t 0 r /Helvetica findfont 71.6807 sf 0 0 m (0) show NC gr 
 gsave  2268 1538 0 0 C 622.319 179.202 t 0 r /Helvetica findfont 71.6807 sf 0 0 m (50) show NC gr 
 gsave  2268 1538 0 0 C 899.267 179.202 t 0 r /Helvetica findfont 71.6807 sf 0 0 m (100) show NC gr 
 gsave  2268 1538 0 0 C 1199.02 179.202 t 0 r /Helvetica findfont 71.6807 sf 0 0 m (150) show NC gr 
 gsave  2268 1538 0 0 C 1495.52 179.202 t 0 r /Helvetica findfont 71.6807 sf 0 0 m (200) show NC gr 
 gsave  2268 1538 0 0 C 1795.28 179.202 t 0 r /Helvetica findfont 71.6807 sf 0 0 m (250) show NC gr 
 gsave  2268 1538 0 0 C 2095.03 179.202 t 0 r /Helvetica findfont 71.6807 sf 0 0 m (300) show NC gr  363 1461 m 1791 X s 363 1425 m 36 Y s 423 1443 m 18 Y s 482 1443 m 18 Y s 542 1443 m 18 Y s 602 1443 m 18 Y s 661 1425 m 36 Y s 721 1443 m 18 Y s 781
 1443 m 18 Y s 841 1443 m 18 Y s 900 1443 m 18 Y s 960 1425 m 36 Y s 1020 1443 m 18 Y s 1079 1443 m 18 Y s 1139 1443 m 18 Y s 1199 1443 m 18 Y s 1259 1425 m 36 Y s 1318 1443 m 18 Y s 1378 1443 m 18 Y s 1438 1443 m 18 Y s 1497 1443 m 18 Y s 1557 1425
 m 36 Y s 1617 1443 m 18 Y s 1677 1443 m 18 Y s 1736 1443 m 18 Y s 1796 1443 m 18 Y s 1856 1425 m 36 Y s 1915 1443 m 18 Y s 1975 1443 m 18 Y s 2035 1443 m 18 Y s 2095 1443 m 18 Y s 2154 1425 m 36 Y s 363 246 m 1215 Y s
 gsave  2268 1538 0 0 C 127.07 1019.82 t 90 r /Helvetica findfont 71.6807 sf 0 0 m (Arbitrary units) show NC gr  417 246 m -54 X s 390 288 m -27 X s 390 330 m -27 X s 390 372 m -27 X s 417 414 m -54 X s 390 456 m -27 X s 390 497 m -27 X s 390 539 m
 -27 X s 417 581 m -54 X s 390 623 m -27 X s 390 665 m -27 X s 390 707 m -27 X s 417 749 m -54 X s 390 791 m -27 X s 390 833 m -27 X s 390 874 m -27 X s 417 916 m -54 X s 390 958 m -27 X s 390 1000 m -27 X s 390 1042 m -27 X s 417 1084 m -54 X s 390
 1126 m -27 X s 390 1168 m -27 X s 390 1210 m -27 X s 417 1252 m -54 X s 390 1293 m -27 X s 390 1335 m -27 X s 390 1377 m -27 X s 417 1419 m -54 X s 417 1419 m -54 X s
 gsave  2268 1538 0 0 C 309.53 221.559 t 0 r /Helvetica findfont 71.6807 sf 0 0 m (0) show NC gr 
 gsave  2268 1538 0 0 C 211.784 387.727 t 0 r /Helvetica findfont 71.6807 sf 0 0 m (0.02) show NC gr 
 gsave  2268 1538 0 0 C 211.784 557.154 t 0 r /Helvetica findfont 71.6807 sf 0 0 m (0.04) show NC gr 
 gsave  2268 1538 0 0 C 211.784 723.323 t 0 r /Helvetica findfont 71.6807 sf 0 0 m (0.06) show NC gr 
 gsave  2268 1538 0 0 C 211.784 892.75 t 0 r /Helvetica findfont 71.6807 sf 0 0 m (0.08) show NC gr 
 gsave  2268 1538 0 0 C 260.657 1058.92 t 0 r /Helvetica findfont 71.6807 sf 0 0 m (0.1) show NC gr 
 gsave  2268 1538 0 0 C 211.784 1228.35 t 0 r /Helvetica findfont 71.6807 sf 0 0 m (0.12) show NC gr 
 gsave  2268 1538 0 0 C 211.784 1394.52 t 0 r /Helvetica findfont 71.6807 sf 0 0 m (0.14) show NC gr  2154 246 m 1215 Y s 2101 246 m 53 X s 2127 288 m 27 X s 2127 330 m 27 X s 2127 372 m 27 X s 2101 414 m 53 X s 2127 456 m 27 X s 2127 497 m 27 X s
 2127 539 m 27 X s 2101 581 m 53 X s 2127 623 m 27 X s 2127 665 m 27 X s 2127 707 m 27 X s 2101 749 m 53 X s 2127 791 m 27 X s 2127 833 m 27 X s 2127 874 m 27 X s 2101 916 m 53 X s 2127 958 m 27 X s 2127 1000 m 27 X s 2127 1042 m 27 X s 2101 1084 m
 53 X s 2127 1126 m 27 X s 2127 1168 m 27 X s 2127 1210 m 27 X s 2101 1252 m 53 X s 2127 1293 m 27 X s 2127 1335 m 27 X s 2127 1377 m 27 X s 2101 1419 m 53 X s 2101 1419 m 53 X s 0 0.4 0 c 6 lw 1 1 1 c black 0 0.4 0 c 363 723 m 60 X 23 Y 59 X 81 Y 60
 X 100 Y 60 X 114 Y 59 X 187 Y 60 X 137 Y 60 X -36 Y 60 X -283 Y 59 X -382 Y 60 X -198 Y 119 X -120 Y 120 X -49 Y 119 X -19 Y 179 X -15 Y 180 X -7 Y 179 X -5 Y 298 X s 0 0 1 c[  12 12 ] 0 sd 661 246 m 1215 Y s 1 1 1 c[  ] 0 sd 42 lw 681 292 1247 1015
 bf black 3 lw 1267 1015 m -13 Y 674 X 286 Y -13 X -273 Y f 42 lw 1 1 1 c 1247 1015 m 292 Y 681 X -292 Y -681 X cl s black
 gsave  2268 1538 0 0 C 1264.19 1241.38 t 0 r /Helvetica findfont 71.6807 sf 0 0 m (Inclusive jet) show NC gr 
 gsave  2268 1538 0 0 C 1417.32 1143.63 t 0 r /Helvetica findfont 71.6807 sf 0 0 m (Powheg WZ) show NC gr  1 0 0 c 6 lw 1273 1161 m 119 X s black
 gsave  2268 1538 0 0 C 1417.32 1042.63 t 0 r /Helvetica findfont 71.6807 sf 0 0 m (Sherpa WZ) show NC gr  0 0.4 0 c 1273 1064 m 119 X s
 gr  gr showpage
end
%%EOF
