%!PS-Adobe-2.0 EPSF-2.0
%%BoundingBox:  0 0 567 507
%%Title: preFit.eps: c
%%Creator: ROOT Version 5.34/03
%%CreationDate: Tue Nov 14 14:45:57 2017
%%EndComments
%%BeginProlog
80 dict begin
/s {stroke} def /l {lineto} def /m {moveto} def /t {translate} def
/r {rotate} def /rl {roll}  def /R {repeat} def
/d {rlineto} def /rm {rmoveto} def /gr {grestore} def /f {eofill} def
/c {setrgbcolor} def /black {0 setgray} def /sd {setdash} def
/cl {closepath} def /sf {scalefont setfont} def /lw {setlinewidth} def
/box {m dup 0 exch d exch 0 d 0 exch neg d cl} def
/NC{systemdict begin initclip end}def/C{NC box clip newpath}def
/bl {box s} def /bf {box f} def /Y { 0 exch d} def /X { 0 d} def 
/K {{pop pop 0 moveto} exch kshow} bind def
/ita {/ang 15 def gsave [1 0 ang dup sin exch cos div 1 0 0] concat} def 
/mp {newpath /y exch def /x exch def} def
/side {[w .77 mul w .23 mul] .385 w mul sd w 0 l currentpoint t -144 r} def
/mr {mp x y w2 0 360 arc} def /m24 {mr s} def /m20 {mr f} def
/mb {mp x y w2 add m w2 neg 0 d 0 w neg d w 0 d 0 w d cl} def
/mt {mp x y w2 add m w2 neg w neg d w 0 d cl} def
/m21 {mb f} def /m25 {mb s} def /m22 {mt f} def /m26{mt s} def
/m23 {mp x y w2 sub m w2 w d w neg 0 d cl f} def
/m27 {mp x y w2 add m w3 neg w2 neg d w3 w2 neg d w3 w2 d cl s} def
/m28 {mp x w2 sub y w2 sub w3 add m w3 0 d  0 w3 neg d w3 0 d 0 w3 d w3 0 d  0 w3 d w3 neg 0 d 0 w3 d w3 neg 0 d 0 w3 neg d w3 neg 0 d cl s } def
/m29 {mp gsave x w2 sub y w2 add w3 sub m currentpoint t 4 {side} repeat cl fill gr} def
/m30 {mp gsave x w2 sub y w2 add w3 sub m currentpoint t 4 {side} repeat cl s gr} def
/m31 {mp x y w2 sub m 0 w d x w2 sub y m w 0 d x w2 sub y w2 add m w w neg d x w2 sub y w2 sub m w w d s} def
/m32 {mp x y w2 sub m w2 w d w neg 0 d cl s} def
/m33 {mp x y w2 add m w3 neg w2 neg d w3 w2 neg d w3 w2 d cl f} def
/m34 {mp x w2 sub y w2 sub w3 add m w3 0 d  0 w3 neg d w3 0 d 0 w3 d w3 0 d  0 w3 d w3 neg 0 d 0 w3 d w3 neg 0 d 0 w3 neg d w3 neg 0 d cl f } def
/m2 {mp x y w2 sub m 0 w d x w2 sub y m w 0 d s} def
/m5 {mp x w2 sub y w2 sub m w w d x w2 sub y w2 add m w w neg d s} def
/reEncode {exch findfont dup length dict begin {1 index /FID eq  {pop pop} {def} ifelse } forall /Encoding exch def currentdict end dup /FontName get exch definefont pop } def [/Times-Bold /Times-Italic /Times-BoldItalic /Helvetica /Helvetica-Oblique
 /Helvetica-Bold /Helvetica-BoldOblique /Courier /Courier-Oblique /Courier-Bold /Courier-BoldOblique /Times-Roman /AvantGarde-Book /AvantGarde-BookOblique /AvantGarde-Demi /AvantGarde-DemiOblique /Bookman-Demi /Bookman-DemiItalic /Bookman-Light
 /Bookman-LightItalic /Helvetica-Narrow /Helvetica-Narrow-Bold /Helvetica-Narrow-BoldOblique /Helvetica-Narrow-Oblique /NewCenturySchlbk-Roman /NewCenturySchlbk-Bold /NewCenturySchlbk-BoldItalic /NewCenturySchlbk-Italic /Palatino-Bold
 /Palatino-BoldItalic /Palatino-Italic /Palatino-Roman ] {ISOLatin1Encoding reEncode } forall
%%EndProlog
%%BeginSetup
%%EndSetup
newpath  gsave  .25 .25 scale  gsave  0 0 t black[  ] 0 sd 3 lw 1 1 1 c 2268 2027 0 0 bf black 1 1 1 c 2268 1297 0 730 bf black 1 1 1 c 1814 1232 340 730 bf black 1814 1232 340 730 bl 6 lw 1 1 1 c black 475 1817 m 20 X s 521 1817 m 21 X s 3 lw /w 31
 def /w2 {w 2 div} def /w3 {w 3 div} def 508 1817 m20 6 lw 542 1843 m 20 X s 588 1843 m 21 X s 3 lw 575 1843 m20 6 lw 609 1860 m 20 X s 656 1860 m 20 X s 3 lw 643 1860 m20 6 lw 676 1807 m 21 X s 723 1807 m 20 X s 3 lw 710 1807 m20 6 lw 743 1705 m 21
 X s 790 1705 m 20 X s 3 lw 777 1705 m20 6 lw 810 1590 m 55 X s 891 1590 m 54 X s 3 lw 878 1590 m20 6 lw 1012 1396 m 2 Y s 1012 1424 m 1 Y s 945 1411 m 54 X s 1025 1411 m 54 X s 3 lw 1012 1411 m20 6 lw 1146 1299 m 8 Y s 1146 1333 m 5 Y s 1079 1320 m
 54 X s 1159 1320 m 55 X s 3 lw 1146 1320 m20 6 lw 1314 1120 m 18 Y s 1314 1164 m 13 Y s 1214 1151 m 87 X s 1327 1151 m 88 X s 3 lw 1314 1151 m20 6 lw 1516 1101 m 20 Y s 1516 1147 m 14 Y s 1415 1134 m 88 X s 1529 1134 m 88 X s 3 lw 1516 1134 m20 6 lw
 1718 863 m 59 Y s 1718 948 m 36 Y s 1617 935 m 88 X s 1731 935 m 87 X s 3 lw 1718 935 m20 6 lw 1986 835 m 48 Y s 1986 909 m 31 Y s 1818 896 m 155 X s 1999 896 m 155 X s 3 lw 1986 896 m20 6 lw 3 lw 340 730 m 1814 X s
 gsave  2268 1297 0 730 C 1980.99 566.929 t 0 r /Helvetica findfont 61.9185 sf 0 0 m ( [GeV]) show NC gr 
 gsave  2268 1297 0 730 C 1941.9 589.737 t 0 r /Helvetica findfont 39.1064 sf 0 0 m (W) show NC gr 
 gsave  2268 1297 0 730 C 1941.9 550.638 t 0 r /Helvetica findfont 39.1064 sf 0 0 m (T) show NC gr 
 gsave  2268 1297 0 730 C 1893.02 566.929 t 0 r /Helvetica findfont 61.9185 sf 0 0 m (m) show NC gr  475 761 m -31 Y s 542 745 m -15 Y s 609 745 m -15 Y s 676 745 m -15 Y s 743 745 m -15 Y s 810 761 m -31 Y s 878 745 m -15 Y s 945 745 m -15 Y s 1012
 745 m -15 Y s 1079 745 m -15 Y s 1146 761 m -31 Y s 1214 745 m -15 Y s 1281 745 m -15 Y s 1348 745 m -15 Y s 1415 745 m -15 Y s 1482 761 m -31 Y s 1550 745 m -15 Y s 1617 745 m -15 Y s 1684 745 m -15 Y s 1751 745 m -15 Y s 1818 761 m -31 Y s 1886
 745 m -15 Y s 1953 745 m -15 Y s 2020 745 m -15 Y s 2087 745 m -15 Y s 2154 761 m -31 Y s 475 761 m -31 Y s 407 745 m -15 Y s
 gsave  2268 1297 0 730 C 436.601 674.45 t 0 r /Helvetica findfont 61.9185 sf 0 0 m (50) show NC gr 
 gsave  2268 1297 0 730 C 755.906 674.45 t 0 r /Helvetica findfont 61.9185 sf 0 0 m (100) show NC gr 
 gsave  2268 1297 0 730 C 1091.5 674.45 t 0 r /Helvetica findfont 61.9185 sf 0 0 m (150) show NC gr 
 gsave  2268 1297 0 730 C 1427.1 674.45 t 0 r /Helvetica findfont 61.9185 sf 0 0 m (200) show NC gr 
 gsave  2268 1297 0 730 C 1765.95 674.45 t 0 r /Helvetica findfont 61.9185 sf 0 0 m (250) show NC gr 
 gsave  2268 1297 0 730 C 2101.55 674.45 t 0 r /Helvetica findfont 61.9185 sf 0 0 m (300) show NC gr  340 1962 m 1814 X s 475 1931 m 31 Y s 542 1946 m 16 Y s 609 1946 m 16 Y s 676 1946 m 16 Y s 743 1946 m 16 Y s 810 1931 m 31 Y s 878 1946 m 16 Y s
 945 1946 m 16 Y s 1012 1946 m 16 Y s 1079 1946 m 16 Y s 1146 1931 m 31 Y s 1214 1946 m 16 Y s 1281 1946 m 16 Y s 1348 1946 m 16 Y s 1415 1946 m 16 Y s 1482 1931 m 31 Y s 1550 1946 m 16 Y s 1617 1946 m 16 Y s 1684 1946 m 16 Y s 1751 1946 m 16 Y s
 1818 1931 m 31 Y s 1886 1946 m 16 Y s 1953 1946 m 16 Y s 2020 1946 m 16 Y s 2087 1946 m 16 Y s 2154 1931 m 31 Y s 475 1931 m 31 Y s 407 1946 m 16 Y s 340 730 m 1232 Y s
 gsave  2268 1297 0 730 C 114.037 1726.85 t 90 r /Helvetica findfont 78.2128 sf 0 0 m (Events) show NC gr  372 730 m -32 X s 372 753 m -32 X s 372 773 m -32 X s 372 791 m -32 X s 405 807 m -65 X s
 gsave  2268 1297 0 730 C 319.748 782.217 t 0 r  -33 0 t /Helvetica findfont 61.9185 sf 0 0 m (1) show NC gr  372 912 m -32 X s 372 973 m -32 X s 372 1017 m -32 X s 372 1051 m -32 X s 372 1078 m -32 X s 372 1102 m -32 X s 372 1122 m -32 X s 372 1140
 m -32 X s 405 1156 m -65 X s
 gsave  2268 1297 0 730 C 319.748 1131.1 t 0 r  -67 0 t /Helvetica findfont 61.9185 sf 0 0 m (10) show NC gr  372 1261 m -32 X s 372 1322 m -32 X s 372 1366 m -32 X s 372 1400 m -32 X s 372 1427 m -32 X s 372 1451 m -32 X s 372 1471 m -32 X s 372
 1489 m -32 X s 405 1505 m -65 X s
 gsave  2268 1297 0 730 C 296.497 1505.29 t 0 r /Helvetica findfont 39.1064 sf 0 0 m (2) show NC gr 
 gsave  2268 1297 0 730 C 228.075 1475.97 t 0 r /Helvetica findfont 61.9185 sf 0 0 m (10) show NC gr  372 1610 m -32 X s 372 1671 m -32 X s 372 1715 m -32 X s 372 1749 m -32 X s 372 1776 m -32 X s 372 1800 m -32 X s 372 1820 m -32 X s 372 1838 m -32
 X s 405 1854 m -65 X s
 gsave  2268 1297 0 730 C 296.497 1857.18 t 0 r /Helvetica findfont 39.1064 sf 0 0 m (3) show NC gr 
 gsave  2268 1297 0 730 C 228.075 1824.6 t 0 r /Helvetica findfont 61.9185 sf 0 0 m (10) show NC gr  372 1959 m -32 X s 2154 730 m 1232 Y s 2122 730 m 32 X s 2122 753 m 32 X s 2122 773 m 32 X s 2122 791 m 32 X s 2090 807 m 64 X s 2122 912 m 32 X s
 2122 973 m 32 X s 2122 1017 m 32 X s 2122 1051 m 32 X s 2122 1078 m 32 X s 2122 1102 m 32 X s 2122 1122 m 32 X s 2122 1140 m 32 X s 2090 1156 m 64 X s 2122 1261 m 32 X s 2122 1322 m 32 X s 2122 1366 m 32 X s 2122 1400 m 32 X s 2122 1427 m 32 X s
 2122 1451 m 32 X s 2122 1471 m 32 X s 2122 1489 m 32 X s 2090 1505 m 64 X s 2122 1610 m 32 X s 2122 1671 m 32 X s 2122 1715 m 32 X s 2122 1749 m 32 X s 2122 1776 m 32 X s 2122 1800 m 32 X s 2122 1820 m 32 X s 2122 1838 m 32 X s 2090 1854 m 64 X s
 2122 1959 m 32 X s 6 lw 1 0 0 c black 3 lw 1 0 0 c 340 730 m 135 X 1071 Y 67 X 24 Y 67 X 9 Y 67 X -48 Y 67 X -89 Y 67 X -129 Y 135 X -154 Y 134 X -112 Y 135 X -136 Y 201 X -106 Y 202 X -154 Y 201 X -49 Y 336 X -127 Y f 6 lw black 1 0 0 c black 340
 730 m 135 X 1071 Y 67 X 24 Y 67 X 9 Y 67 X -48 Y 67 X -89 Y 67 X -129 Y 135 X -154 Y 134 X -112 Y 135 X -136 Y 201 X -106 Y 202 X -154 Y 201 X -49 Y 336 X s 0.999 0.999 0.999 c black 3 lw 0.999 0.999 0.999 c 340 730 m 135 X 818 Y 67 X -11 Y 67 X -54
 Y 67 X -58 Y 67 X -43 Y 67 X -95 Y 135 X -106 Y 134 X -121 Y 135 X -95 Y 201 X -113 Y 202 X -122 Y 537 X f 6 lw black 0.999 0.999 0.999 c black 340 730 m 135 X 818 Y 67 X -11 Y 67 X -54 Y 67 X -58 Y 67 X -43 Y 67 X -95 Y 135 X -106 Y 134 X -121 Y
 135 X -95 Y 201 X -113 Y 202 X -122 Y 537 X s 1 1 1 c black 340 730 m 135 X 818 Y 67 X -11 Y 67 X -54 Y 67 X -58 Y 67 X -43 Y 67 X -95 Y 135 X -106 Y 134 X -121 Y 135 X -95 Y 201 X -113 Y 202 X -122 Y 537 X s 0 0.4 0 c black 3 lw 0 0.4 0 c 340 730 m
 135 X 818 Y 67 X -11 Y 67 X -54 Y 67 X -58 Y 67 X -43 Y 67 X -95 Y 135 X -106 Y 134 X -121 Y 135 X -95 Y 201 X -113 Y 202 X -122 Y 537 X f 6 lw black 0 0.4 0 c black 340 730 m 135 X 818 Y 67 X -11 Y 67 X -54 Y 67 X -58 Y 67 X -43 Y 67 X -95 Y 135 X
 -106 Y 134 X -121 Y 135 X -95 Y 201 X -113 Y 202 X -122 Y 537 X s 1 1 1 c black 475 1817 m 20 X s 521 1817 m 21 X s 3 lw 508 1817 m20 6 lw 542 1843 m 20 X s 588 1843 m 21 X s 3 lw 575 1843 m20 6 lw 609 1860 m 20 X s 656 1860 m 20 X s 3 lw 643 1860
 m20 6 lw 676 1807 m 21 X s 723 1807 m 20 X s 3 lw 710 1807 m20 6 lw 743 1705 m 21 X s 790 1705 m 20 X s 3 lw 777 1705 m20 6 lw 810 1590 m 55 X s 891 1590 m 54 X s 3 lw 878 1590 m20 6 lw 1012 1396 m 2 Y s 1012 1424 m 1 Y s 945 1411 m 54 X s 1025 1411
 m 54 X s 3 lw 1012 1411 m20 6 lw 1146 1299 m 8 Y s 1146 1333 m 5 Y s 1079 1320 m 54 X s 1159 1320 m 55 X s 3 lw 1146 1320 m20 6 lw 1314 1120 m 18 Y s 1314 1164 m 13 Y s 1214 1151 m 87 X s 1327 1151 m 88 X s 3 lw 1314 1151 m20 6 lw 1516 1101 m 20 Y s
 1516 1147 m 14 Y s 1415 1134 m 88 X s 1529 1134 m 88 X s 3 lw 1516 1134 m20 6 lw 1718 863 m 59 Y s 1718 948 m 36 Y s 1617 935 m 88 X s 1731 935 m 87 X s 3 lw 1718 935 m20 6 lw 1986 835 m 48 Y s 1986 909 m 31 Y s 1818 896 m 155 X s 1999 896 m 155 X s
 3 lw 1986 896 m20 6 lw 3 lw 340 730 m 1814 X s 475 761 m -31 Y s 542 745 m -15 Y s 609 745 m -15 Y s 676 745 m -15 Y s 743 745 m -15 Y s 810 761 m -31 Y s 878 745 m -15 Y s 945 745 m -15 Y s 1012 745 m -15 Y s 1079 745 m -15 Y s 1146 761 m -31 Y s
 1214 745 m -15 Y s 1281 745 m -15 Y s 1348 745 m -15 Y s 1415 745 m -15 Y s 1482 761 m -31 Y s 1550 745 m -15 Y s 1617 745 m -15 Y s 1684 745 m -15 Y s 1751 745 m -15 Y s 1818 761 m -31 Y s 1886 745 m -15 Y s 1953 745 m -15 Y s 2020 745 m -15 Y s
 2087 745 m -15 Y s 2154 761 m -31 Y s 475 761 m -31 Y s 407 745 m -15 Y s 340 1962 m 1814 X s 475 1931 m 31 Y s 542 1946 m 16 Y s 609 1946 m 16 Y s 676 1946 m 16 Y s 743 1946 m 16 Y s 810 1931 m 31 Y s 878 1946 m 16 Y s 945 1946 m 16 Y s 1012 1946 m
 16 Y s 1079 1946 m 16 Y s 1146 1931 m 31 Y s 1214 1946 m 16 Y s 1281 1946 m 16 Y s 1348 1946 m 16 Y s 1415 1946 m 16 Y s 1482 1931 m 31 Y s 1550 1946 m 16 Y s 1617 1946 m 16 Y s 1684 1946 m 16 Y s 1751 1946 m 16 Y s 1818 1931 m 31 Y s 1886 1946 m 16
 Y s 1953 1946 m 16 Y s 2020 1946 m 16 Y s 2087 1946 m 16 Y s 2154 1931 m 31 Y s 475 1931 m 31 Y s 407 1946 m 16 Y s 340 730 m 1232 Y s 372 730 m -32 X s 372 753 m -32 X s 372 773 m -32 X s 372 791 m -32 X s 405 807 m -65 X s 372 912 m -32 X s 372
 973 m -32 X s 372 1017 m -32 X s 372 1051 m -32 X s 372 1078 m -32 X s 372 1102 m -32 X s 372 1122 m -32 X s 372 1140 m -32 X s 405 1156 m -65 X s 372 1261 m -32 X s 372 1322 m -32 X s 372 1366 m -32 X s 372 1400 m -32 X s 372 1427 m -32 X s 372
 1451 m -32 X s 372 1471 m -32 X s 372 1489 m -32 X s 405 1505 m -65 X s 372 1610 m -32 X s 372 1671 m -32 X s 372 1715 m -32 X s 372 1749 m -32 X s 372 1776 m -32 X s 372 1800 m -32 X s 372 1820 m -32 X s 372 1838 m -32 X s 405 1854 m -65 X s 372
 1959 m -32 X s 2154 730 m 1232 Y s 2122 730 m 32 X s 2122 753 m 32 X s 2122 773 m 32 X s 2122 791 m 32 X s 2090 807 m 64 X s 2122 912 m 32 X s 2122 973 m 32 X s 2122 1017 m 32 X s 2122 1051 m 32 X s 2122 1078 m 32 X s 2122 1102 m 32 X s 2122 1122 m
 32 X s 2122 1140 m 32 X s 2090 1156 m 64 X s 2122 1261 m 32 X s 2122 1322 m 32 X s 2122 1366 m 32 X s 2122 1400 m 32 X s 2122 1427 m 32 X s 2122 1451 m 32 X s 2122 1471 m 32 X s 2122 1489 m 32 X s 2090 1505 m 64 X s 2122 1610 m 32 X s 2122 1671 m 32
 X s 2122 1715 m 32 X s 2122 1749 m 32 X s 2122 1776 m 32 X s 2122 1800 m 32 X s 2122 1820 m 32 X s 2122 1838 m 32 X s 2090 1854 m 64 X s 2122 1959 m 32 X s 1 1 1 c 45 lw 907 337 1157 1547 bf black
 gsave  2268 1297 0 730 C 1267.45 1834.37 t 0 r /Helvetica findfont 71.6951 sf 0 0 m ( > 15 GeV) show NC gr 
 gsave  2268 1297 0 730 C 1215.31 1798.53 t 0 r /Helvetica findfont 45.6242 sf 0 0 m (T3) show NC gr 
 gsave  2268 1297 0 730 C 1176.22 1834.37 t 0 r /Helvetica findfont 71.6951 sf 0 0 m (p) show NC gr 
 gsave  2268 1297 0 730 C 1381.48 1733.37 t 0 r /Helvetica findfont 71.6951 sf 0 0 m (Data) show NC gr  1 1 1 c 3 lw 1191 1728 m 158 X 59 Y -158 X f 45 lw black 6 lw 1191 1757 m 158 X s 3 lw 1270 1757 m20 6 lw
 gsave  2268 1297 0 730 C 1381.48 1651.91 t 0 r /Helvetica findfont 71.6951 sf 0 0 m (WZ \(Sherpa\)) show NC gr  1 0 0 c 3 lw 1191 1644 m 158 X 59 Y -158 X f 6 lw black 1191 1703 m 158 X s 1191 1644 m 158 X s 1349 1644 m 59 Y s 1191 1644 m 59 Y s
 gsave  2268 1297 0 730 C 1381.48 1567.2 t 0 r /Helvetica findfont 71.6951 sf 0 0 m (Other backgrounds) show NC gr  0 0.4 0 c 3 lw 1191 1559 m 158 X 59 Y -158 X f 6 lw black 1191 1618 m 158 X s 1191 1559 m 158 X s 1349 1559 m 59 Y s 1191 1559 m 59 Y
 s 3 lw 1 1 1 c 2268 730 0 0 bf black 1 1 1 c 1814 526 340 204 bf black 1814 526 340 204 bl 6 lw 1 1 1 c black 475 443 m 20 X s 521 443 m 21 X s 3 lw 508 443 m20 6 lw 542 446 m 20 X s 588 446 m 21 X s 3 lw 575 446 m20 6 lw 609 464 m 20 X s 656 464 m
 20 X s 3 lw 643 464 m20 6 lw 676 452 m 21 X s 723 452 m 20 X s 3 lw 710 452 m20 6 lw 777 412 m 3 Y s 777 441 m 3 Y s 743 428 m 21 X s 790 428 m 20 X s 3 lw 777 428 m20 6 lw 878 436 m 6 Y s 878 468 m 5 Y s 810 455 m 55 X s 891 455 m 54 X s 3 lw 878
 455 m20 6 lw 1012 380 m 15 Y s 1012 421 m 16 Y s 945 408 m 54 X s 1025 408 m 54 X s 3 lw 1012 408 m20 6 lw 1146 404 m 30 Y s 1146 461 m 30 Y s 1079 448 m 54 X s 1159 448 m 55 X s 3 lw 1146 448 m20 6 lw 1314 338 m 36 Y s 1314 400 m 36 Y s 1214 387 m
 87 X s 1327 387 m 88 X s 3 lw 1314 387 m20 6 lw 1516 475 m 94 Y s 1516 595 m 95 Y s 1415 582 m 88 X s 1529 582 m 88 X s 3 lw 1516 582 m20 6 lw 1718 336 m 121 Y s 1718 483 m 121 Y s 1617 470 m 88 X s 1731 470 m 87 X s 3 lw 1718 470 m20 6 lw 1986 366
 m 114 Y s 1986 506 m 114 Y s 1818 493 m 155 X s 1999 493 m 155 X s 3 lw 1986 493 m20 6 lw 3 lw 340 204 m 1814 X s
 gsave  2268 730 0 0 C 1945.15 29.3239 t 0 r /Helvetica findfont 75.2481 sf 0 0 m ( [GeV]) show NC gr 
 gsave  2268 730 0 0 C 1899.54 55.3896 t 0 r /Helvetica findfont 49.0748 sf 0 0 m (W) show NC gr 
 gsave  2268 730 0 0 C 1899.54 9.77464 t 0 r /Helvetica findfont 49.0748 sf 0 0 m (T) show NC gr 
 gsave  2268 730 0 0 C 1840.89 29.3239 t 0 r /Helvetica findfont 75.2481 sf 0 0 m (m) show NC gr  475 222 m -18 Y s 542 213 m -9 Y s 609 213 m -9 Y s 676 213 m -9 Y s 743 213 m -9 Y s 810 222 m -18 Y s 878 213 m -9 Y s 945 213 m -9 Y s 1012 213 m -9
 Y s 1079 213 m -9 Y s 1146 222 m -18 Y s 1214 213 m -9 Y s 1281 213 m -9 Y s 1348 213 m -9 Y s 1415 213 m -9 Y s 1482 222 m -18 Y s 1550 213 m -9 Y s 1617 213 m -9 Y s 1684 213 m -9 Y s 1751 213 m -9 Y s 1818 222 m -18 Y s 1886 213 m -9 Y s 1953 213
 m -9 Y s 2020 213 m -9 Y s 2087 213 m -9 Y s 2154 222 m -18 Y s 475 222 m -18 Y s 407 213 m -9 Y s
 gsave  2268 730 0 0 C 436.601 140.103 t 0 r /Helvetica findfont 62.1615 sf 0 0 m (50) show NC gr 
 gsave  2268 730 0 0 C 755.906 140.103 t 0 r /Helvetica findfont 62.1615 sf 0 0 m (100) show NC gr 
 gsave  2268 730 0 0 C 1091.5 140.103 t 0 r /Helvetica findfont 62.1615 sf 0 0 m (150) show NC gr 
 gsave  2268 730 0 0 C 1427.1 140.103 t 0 r /Helvetica findfont 62.1615 sf 0 0 m (200) show NC gr 
 gsave  2268 730 0 0 C 1765.95 140.103 t 0 r /Helvetica findfont 62.1615 sf 0 0 m (250) show NC gr 
 gsave  2268 730 0 0 C 2101.55 140.103 t 0 r /Helvetica findfont 62.1615 sf 0 0 m (300) show NC gr  340 730 m 1814 X s 475 712 m 18 Y s 542 721 m 9 Y s 609 721 m 9 Y s 676 721 m 9 Y s 743 721 m 9 Y s 810 712 m 18 Y s 878 721 m 9 Y s 945 721 m 9 Y s
 1012 721 m 9 Y s 1079 721 m 9 Y s 1146 712 m 18 Y s 1214 721 m 9 Y s 1281 721 m 9 Y s 1348 721 m 9 Y s 1415 721 m 9 Y s 1482 712 m 18 Y s 1550 721 m 9 Y s 1617 721 m 9 Y s 1684 721 m 9 Y s 1751 721 m 9 Y s 1818 712 m 18 Y s 1886 721 m 9 Y s 1953 721
 m 9 Y s 2020 721 m 9 Y s 2087 721 m 9 Y s 2154 712 m 18 Y s 475 712 m 18 Y s 407 721 m 9 Y s 340 204 m 526 Y s
 gsave  2268 730 0 0 C 127.07 303.014 t 90 r /Helvetica findfont 75.2481 sf 0 0 m (Data / MC) show NC gr  389 279 m -49 X s 365 306 m -25 X s 365 333 m -25 X s 365 360 m -25 X s 365 387 m -25 X s 389 413 m -49 X s 365 440 m -25 X s 365 467 m -25 X s
 365 494 m -25 X s 365 521 m -25 X s 389 547 m -49 X s 365 574 m -25 X s 365 601 m -25 X s 365 628 m -25 X s 365 655 m -25 X s 389 681 m -49 X s 389 279 m -49 X s 365 253 m -25 X s 365 226 m -25 X s 389 681 m -49 X s 365 708 m -25 X s
 gsave  2268 730 0 0 C 241.108 257.399 t 0 r /Helvetica findfont 62.1615 sf 0 0 m (0.5) show NC gr 
 gsave  2268 730 0 0 C 299.756 387.727 t 0 r /Helvetica findfont 62.1615 sf 0 0 m (1) show NC gr 
 gsave  2268 730 0 0 C 241.108 524.572 t 0 r /Helvetica findfont 62.1615 sf 0 0 m (1.5) show NC gr 
 gsave  2268 730 0 0 C 293.239 658.159 t 0 r /Helvetica findfont 62.1615 sf 0 0 m (2) show NC gr  2154 204 m 526 Y s 2105 279 m 49 X s 2130 306 m 24 X s 2130 333 m 24 X s 2130 360 m 24 X s 2130 387 m 24 X s 2105 413 m 49 X s 2130 440 m 24 X s 2130
 467 m 24 X s 2130 494 m 24 X s 2130 521 m 24 X s 2105 547 m 49 X s 2130 574 m 24 X s 2130 601 m 24 X s 2130 628 m 24 X s 2130 655 m 24 X s 2105 681 m 49 X s 2105 279 m 49 X s 2130 253 m 24 X s 2130 226 m 24 X s 2105 681 m 49 X s 2130 708 m 24 X s 0
 0 1 c[  12 12 ] 0 sd 6 lw 340 413 m 1814 X s black[  ] 0 sd 1 1 1 c black 475 443 m 20 X s 521 443 m 21 X s 3 lw 508 443 m20 6 lw 542 446 m 20 X s 588 446 m 21 X s 3 lw 575 446 m20 6 lw 609 464 m 20 X s 656 464 m 20 X s 3 lw 643 464 m20 6 lw 676 452
 m 21 X s 723 452 m 20 X s 3 lw 710 452 m20 6 lw 777 412 m 3 Y s 777 441 m 3 Y s 743 428 m 21 X s 790 428 m 20 X s 3 lw 777 428 m20 6 lw 878 436 m 6 Y s 878 468 m 5 Y s 810 455 m 55 X s 891 455 m 54 X s 3 lw 878 455 m20 6 lw 1012 380 m 15 Y s 1012
 421 m 16 Y s 945 408 m 54 X s 1025 408 m 54 X s 3 lw 1012 408 m20 6 lw 1146 404 m 30 Y s 1146 461 m 30 Y s 1079 448 m 54 X s 1159 448 m 55 X s 3 lw 1146 448 m20 6 lw 1314 338 m 36 Y s 1314 400 m 36 Y s 1214 387 m 87 X s 1327 387 m 88 X s 3 lw 1314
 387 m20 6 lw 1516 475 m 94 Y s 1516 595 m 95 Y s 1415 582 m 88 X s 1529 582 m 88 X s 3 lw 1516 582 m20 6 lw 1718 336 m 121 Y s 1718 483 m 121 Y s 1617 470 m 88 X s 1731 470 m 87 X s 3 lw 1718 470 m20 6 lw 1986 366 m 114 Y s 1986 506 m 114 Y s 1818
 493 m 155 X s 1999 493 m 155 X s 3 lw 1986 493 m20 6 lw
 gr  gr showpage
end
%%EOF
